{
  "environment": "web",
  "format": "html",
  "prefix": "https://storage.googleapis.com",
  "mainga": "UA-49880327-14",
  "updated": "2020-06-30T18:29:47+02:00",
  "id": "tp1",
  "duration": 3,
  "title": "TP1 - Introduction à la CI/CD",
  "authors": "OCTO Technology",
  "summary": "TP1 - Introduction à la CI/CD",
  "source": "tp1.md",
  "theme": "",
  "status": [
    "published"
  ],
  "category": [
    "ci"
  ],
  "tags": [
    "cd",
    "ci",
    "gitlab"
  ],
  "feedback": "https://gitlab.com/octo-technology/octo-bda/cercle-formation/dsin2/-/issues/new",
  "url": "tp1"
}
